9 Numeric Data Summarizing, Processing and Wrangling Tasks | An R Primer for Social Scientists
…
In this section, we will survey some useful functions (primarily from the dplyr package) for wrangling and processing numeric data. We will demonstrate these functions using the Persson-Tabellini dataset on political-economic data (pt).

First, we’ll make a copy of the pt object, by assigning it to a new object named pt_copy. We’ll use pt_copy when exploring the dataset, which ensures that we do not make inadvertent changes to our original pt data frame, and can always refer back to it when needed. Keeping a “clean” version of the data, and carrying out analysis tasks on a copy of this dataset, is good data management practice.

# Make a copy of the dataset so we don't alter the original dataset; then, view
# the copied dataset 
pt_copy<-pt

We can go ahead and print the contents of pt_copy, which, at this point, is identical to pt:

# Print contents of "pt_copy"
pt_copy

## # A tibble: 85 × 75
##     oecd country     pind pindo ctrycd col_uk t_indep col_uka col_espa col_otha legor_uk legor_so legor_fr
##    <dbl> <chr>      <dbl> <dbl>  <dbl>  <dbl>   <dbl>   <dbl>    <dbl>    <dbl>    <dbl>    <dbl>    <dbl>
##  1     0 Argentina  0     0        213      0     183   0        0.268    0            0        0        1
##  2     1 Australia  1     1        193      1      98   0.608    0        0            1        0        0
##  3     1 Austria    0     0        122      0     250   0        0        0            0        0        0
##  4     0 Bahamas    1     1        313      1      26   0.896    0        0            1        0        0
##  5     0 Bangladesh 1     1        513      0      28   0        0        0.888        1        0        0
##  6     0 Barbados   1     1        316      1      33   0.868    0        0            1        0        0
##  7     0 Belarus    1     1        913      0       8   0        0        0.968        0        1        0
##  8     1 Belgium    0     0        124      0     169   0        0        0.324        0        0        1
##  9     0 Belize     1     1        339      1      18   0.928    0        0            1        0        0
## 10     0 Bolivia    0.116 0.116    218      0     174   0        0.304    0            0        0        1
## # ℹ 75 more rows
## # ℹ 62 more variables: legor_ge <dbl>, legor_sc <dbl>, prot80 <dbl>, catho80 <dbl>, confu <dbl>,
## #   avelf <dbl>, govef <dbl>, graft <dbl>, logyl <dbl>, loga <dbl>, yrsopen <dbl>, gadp <dbl>,
## #   engfrac <dbl>, eurfrac <dbl>, frankrom <dbl>, latitude <dbl>, gastil <dbl>, cgexp <dbl>, cgrev <dbl>,
## #   ssw <dbl>, rgdph <dbl>, trade <dbl>, prop1564 <dbl>, prop65 <dbl>, federal <dbl>, eduger <dbl>,
## #   spropn <dbl>, yearele <dbl>, yearreg <dbl>, seats <dbl>, maj <dbl>, pres <dbl>, lyp <dbl>,
## #   semi <dbl>, majpar <dbl>, majpres <dbl>, propres <dbl>, dem_age <dbl>, lat01 <dbl>, age <dbl>, …
…
# Selects "country", "cgexp", "cgrev", and "trade" variables from the "pt_copy" dataset and assigns the selection to a new object named "pt_copy_selection"
pt_copy_selection<-pt_copy %>% 
                    select(country, cgexp, cgrev, trade, federal)

When you view the pt_copy_selection object in the data viewer, you’ll see that we now have a new data frame that consists only of these variables:

# views "pt_copy_selection" in data viewer
View(pt_copy_selection)

Instead of selecting columns to keep, it may sometimes by easier to directly delete columns. For example, the code below deletes the “federal” variable from pt_copy_selection by passing it to the select() column with a “-” in front of it.

# deletes "federal" variable from "pt_copy_selection"
pt_copy_selection %>% select(-federal)

## # A tibble: 85 × 4
##    country       cgexp cgrev trade
##    <chr>         <dbl> <dbl> <dbl>
##  1 Singapore      18.5  34.7  343.
##  2 Malta          41.0  35.0  190.
##  3 Luxembourg     40.2  45.5  189.
##  4 Malaysia       24.5  26.8  176.
##  5 Estonia        30.0  31.1  154.
##  6 Belgium        47.9  43.7  132.
##  7 Ireland        38.1  34.8  129.
##  8 Mauritius      22.5  21.6  128.
##  9 St. Vincent&G  34.8  28.7  123.
## 10 Jamaica        NA    NA    122.
## # ℹ 75 more rows

If you want to delete multiple columns, simply specify the columns in a vector, preceded by a minus sign, that is passed to the select() function. The code below, for instance, takes the existing pt_copy_selection data frame, deletes the “federal” and “trade” columns, and assigns the result to a new object named pt_copy_selection_modified:

# deletes "federal" and "trade" from "pt_copy_selection" and assigns it to new object named "pt_copy_selection_modified"
pt_copy_selection_modified<-pt_copy_selection %>% select(-c(federal, trade))

Check the pt_copy_selection_modified data frame in the data viewer to confirm these changes:

# views "pt_copy_selection_modified" in data viewer
pt_copy_selection_modified

## # A tibble: 85 × 3
##    country       cgexp cgrev
##    <chr>         <dbl> <dbl>
##  1 Singapore      18.5  34.7
##  2 Malta          41.0  35.0
##  3 Luxembourg     40.2  45.5
##  4 Malaysia       24.5  26.8
##  5 Estonia        30.0  31.1
##  6 Belgium        47.9  43.7
##  7 Ireland        38.1  34.8
##  8 Mauritius      22.5  21.6
##  9 St. Vincent&G  34.8  28.7
## 10 Jamaica        NA    NA  
## # ℹ 75 more rows
…
